SHARE - Switzerland
…
# Age Group U50, 50–59, 60–69, 70–79, 80–89 Means
age_summary <- swiss_data_subsidy %>%
  filter(!is.na(age_group_label)) %>%
  mutate(Group = "Age Group", Subgroup = age_group_label) %>%
  group_by(Group, Subgroup) %>%
  summarise(avg_subsidy = mean(income_diff, na.rm = TRUE), .groups = "drop")

combined_summary <- bind_rows(mean_overall, gender_summary, smoking_summary, education_summary, area_summary, health_summary, income_summary, age_summary, partner_summary, external_help_summary)

# View table
combined_summary

# A tibble: 44 × 3
   Group           Subgroup        avg_subsidy
   <chr>           <chr>                 <dbl>
 1 Overall         Sample                 52.1
 2 Gender          Female                 53.3
 3 Gender          Male                   50.5
 4 Smoking Status  Non-Smoker             51.9
 5 Smoking Status  Other                  55.4
 6 Smoking Status  Smoker                 51.0
 7 Education Level Lower secondary        53.6
 8 Education Level No education           66.2
 9 Education Level Post-secondary         49.8
10 Education Level Primary                57.7
# ℹ 34 more rows
…
